{
  "html": "<div class='modal__overlay' tabindex='-1' data-micromodal-close=''><div class='modal-default'><div class='modal-close modal-close_callback' data-micromodal-close=''><img src='/img/icons/remove.svg' alt=''></div><div class='modal-default__content'><div class='to-cart-form'><div class='to-cart-form__wrap'><div class='to-cart-form__header'><div class='to-cart-form__type-wrap'><div class='to-cart-form__img-wrap'><img class='to-cart-form__img' src='/img/prom-luxe.svg' alt=''></div><div class='to-cart-form__type-right'><div class='to-cart-form__type'>внутреняя реклама</div><div class='to-cart-form__title'><div class='to-cart-form__title-link'>luxe пакет</div></div></div></div></div><div class='to-cart-form__content'><div class='cart-info'><div class='cart-info__wrap'><div class='cart-info__block'><div class='cart-info__row'><div for='' class='input__label-big mb_0'>БРЕНД</div><div class='cart-info__val'>CLARINS</div></div><div class='cart-info__row'><div for='' class='input__label-big mb_0'>период проведения</div><div class='cart-info__val'>30.05.2019 — 08.06.2019</div></div><div class='cart-info__row'><div class='cart-info__val'>+ производство ролика</div></div><div class='cart-info__row'><div for='' class='input__label-big mb_0'>ЦЕНА</div><div class='cart-info__val'>1 600 000 ₽</div></div><div class='to-cart-form__border to-cart-form__border_info'></div></div><div class='cart-info__block'><div class='cart-info__row'><div for='' class='input__label-big mb_0'>БРЕНД</div><div class='cart-info__val'>CLARINS</div></div><div class='cart-info__row'><div for='' class='input__label-big mb_0'>период проведения</div><div class='cart-info__val'>30.05.2019 — 08.06.2019</div></div><div class='cart-info__row'><div for='' class='input__label-big mb_0'>ЦЕНА</div><div class='cart-info__val'>1 600 000 ₽</div></div><div class='to-cart-form__border to-cart-form__border_info'></div></div></div><div class='to-cart-form__row'><label for='' class='input__label-big'>итоговая ЦЕНА</label><div class='price price_big'>1 600 000 ₽</div></div></div></div><div class='cart-success-text'><div class='cart-success-text__wrap'><div class='cart-success-text__img-wrap'><img class='cart-success-text__img' src='/img/success-icon.svg' alt=''></div><div class='cart-success-text__text'>успешно добавлен<br>в корзину</div></div></div><div class='to-cart-form__bottom'><div class='to-cart-form__success-btn'><div class='to-cart-form__btn'><a href='' class='btn btn_type-1 js-close-all-modal'>вернуться к покупкам</a></div><div class='to-cart-form__btn mt_30'><a href='' class='btn btn_type-2 js-slide-prom'><div class='btn__icon-wrap'><img src='/img/icons/cart.svg' alt='' class='btn__icon'></div>перейти в корзину</a></div></div></div></div></div></div></div></div>",
  "date_list": [
    {
      "date": "20.02.2019",
      "message": "dewfwef"
    },
    {
      "date": "20.02.2019",
      "message": "dewfwef"
    },
    {
      "date": "20.02.2019",
      "message": "dewfwef"
    },
    {
      "date": "20.02.2019",
      "message": "dewfwef"
    },
    {
      "date": "20.02.2019",
      "message": "dewfwef"
    }
  ]
}




