<svg width="107" height="88" viewBox="0 0 107 88" fill="none" xmlns="http://www.w3.org/2000/svg">
<path d="M107 0H0V53.7002H48.711V88H58.289V53.7002H107V0ZM67.8103 0.856531V52.8437H61.214V0.856531H67.8103ZM10.4599 0.856531H12.2454V52.8437H10.4599V0.856531ZM19.2259 0.856531H21.5048V52.8437H19.2259V0.856531ZM27.6209 0.856531H30.7641V52.8437H27.6209V0.856531ZM36.0203 0.856531H40.0279V52.8437H36.0203V0.856531ZM44.4196 0.856531H49.2916V52.8137H48.711V52.848H44.4196V0.856531ZM57.4159 87.1435H49.5841V53.7002H57.4159V87.1435ZM52.819 52.8137V0.856531H58.551V52.8437H58.289V52.8094H52.819V52.8137ZM106.127 52.8437H69.6133V0.856531H106.127V52.8437Z" fill="black"/>
</svg>
