<svg width="111" height="128" viewBox="0 0 111 128" fill="none" xmlns="http://www.w3.org/2000/svg">
<path d="M55.4935 0L0 32V96L55.4935 128L110.987 96V32L55.4935 0ZM71.293 76.1267C71.6444 75.9188 71.8266 75.8278 72.178 75.6198C72.178 75.6978 72.1389 75.8928 71.9958 75.9837C71.3711 76.5296 71.306 77.0495 71.293 77.2315C71.293 77.2445 71.293 77.2575 71.293 77.2835C71.293 77.2965 71.293 77.3095 71.293 77.3095C71.306 80.4939 71.306 82.0796 71.319 85.251C74.7418 83.3014 76.5378 82.2746 80.0908 80.221C80.1949 80.5069 80.2339 80.6499 80.338 80.9358C76.681 83.0414 74.8459 84.1072 71.332 86.1089C71.3451 89.2673 71.3581 90.84 71.3711 93.9854C71.3711 93.9854 71.3711 93.9984 71.3711 94.0114C71.3711 94.0244 71.3711 94.0374 71.3711 94.0634C71.3841 94.2453 71.4492 94.6872 72.0609 94.5313C72.204 94.4663 72.243 94.5833 72.243 94.6613C72.243 94.6872 72.243 94.7522 72.243 94.7522C71.9047 94.9472 71.7225 95.0512 71.3841 95.2461C69.9005 96.091 69.1717 96.5069 67.7531 97.2998C67.4277 97.4817 67.2585 97.5727 66.9462 97.7547C66.9462 97.7547 66.9462 97.6897 66.9462 97.6637C66.9462 97.5857 66.9852 97.4297 67.1024 97.3387C67.649 96.8578 67.7271 96.3509 67.7401 96.143C67.662 89.4362 67.6099 86.0959 67.5448 79.3761C67.5318 79.1941 67.4407 78.7782 66.8551 78.9342C66.7249 78.9992 66.6859 78.8562 66.6729 78.7782C67.0113 78.5833 67.1805 78.4923 67.5188 78.2973C69.0025 77.4265 69.7573 76.9976 71.293 76.1267ZM79.6483 62.8432C82.7717 72.0715 84.4115 76.6726 87.535 85.8879C88.459 81.9236 88.9145 79.948 89.8125 76.0098C90.1639 75.8148 90.3331 75.7108 90.6715 75.5028C89.6043 80.182 89.0707 82.5215 87.9775 87.2136C87.9775 87.2136 88.8364 89.5012 88.6282 92.5686C88.446 95.3891 87.7823 97.8327 86.2336 98.8465C83.2533 100.796 85.0232 93.3355 85.1403 92.8676C84.7629 91.8668 84.3725 90.879 84.3725 90.879C80.8976 80.6889 79.0626 75.6068 75.6008 65.3907C75.6008 65.3777 75.5878 65.3647 75.5878 65.3517C75.5357 65.2088 75.2754 64.7409 74.3514 64.9748C74.2082 65.0398 74.1692 64.9228 74.1692 64.8448C74.1692 64.8188 74.1692 64.7669 74.1692 64.7669C76.6029 63.3631 77.8262 62.6613 80.2729 61.2575C80.2729 61.2575 80.2729 61.3095 80.2729 61.3355C80.2729 61.4135 80.2469 61.5305 80.0777 61.6734C79.4921 62.2453 79.6222 62.7522 79.6483 62.8432ZM102.827 57.9431C102.827 58.0211 102.801 58.1771 102.684 58.2551C102.189 58.723 102.111 59.2429 102.111 59.4379C102.111 59.4638 102.111 59.4768 102.111 59.5028C102.111 59.5158 102.111 59.5158 102.111 59.5158C102.111 66.1706 102.111 69.498 102.111 76.1657C102.111 76.1657 102.111 76.1657 102.111 76.1787C102.111 76.2047 102.111 76.2177 102.111 76.2437C102.111 76.4257 102.189 76.8676 102.684 76.7506C102.801 76.6986 102.827 76.8156 102.827 76.8936C102.827 76.9196 102.827 76.9586 102.827 76.9586C102.541 77.1275 102.397 77.2055 102.111 77.3875C100.901 78.1024 100.263 78.4793 98.9486 79.2461C98.6363 79.4281 98.4801 79.5191 98.1548 79.7141C98.1548 79.7141 98.1548 79.6881 98.1548 79.6491C98.1548 79.5711 98.1938 79.4151 98.324 79.3241C98.8706 78.8302 98.9486 78.3233 98.9486 78.1283C98.9486 74.9309 98.9486 73.3323 98.9486 70.1348C93.9771 73.0463 91.114 74.723 85.4006 78.0244C85.3095 77.7384 85.2575 77.5955 85.1534 77.3095C90.9578 73.9431 93.886 72.2405 98.9486 69.277C98.9486 66.0796 98.9486 64.4809 98.9486 61.2835C98.9356 61.1015 98.8576 60.6726 98.324 60.8156C98.1938 60.8676 98.1678 60.7506 98.1678 60.6856C98.1678 60.6596 98.1678 60.6206 98.1678 60.6206C98.4801 60.4387 98.6363 60.3477 98.9486 60.1657C100.25 59.4119 100.875 59.0479 102.098 58.3331C102.384 58.1641 102.528 58.0861 102.814 57.9171C102.827 57.8781 102.827 57.9171 102.827 57.9431ZM94.719 54.1738C94.719 54.1738 94.9012 53.355 94.3155 53.446C94.1593 53.485 94.1463 53.394 94.1463 53.316C94.1463 53.29 94.1463 53.225 94.1463 53.225C95.2135 52.6141 95.7341 52.3022 96.7622 51.7173C96.7622 51.7173 96.7622 51.7693 96.7622 51.8083C96.7622 51.8863 96.7232 52.0422 96.593 52.1332C95.7341 52.8481 95.4998 53.8879 95.4998 53.9139C93.821 61.6214 92.962 65.4817 91.2051 73.2543C90.8667 73.4492 90.6975 73.5532 90.3461 73.7482C92.1291 65.8717 93.0011 61.9594 94.719 54.1738C94.719 54.1608 94.719 54.1608 94.719 54.1738ZM109.048 32.3769L55.4935 63.2461L1.95216 32.3769L55.4935 1.49472L109.048 32.3769ZM1.30144 33.4947L54.8428 64.3639V126.115L1.30144 95.2461V33.4947Z" fill="url(#paint0_linear)"/>
<path d="M85.9082 98.5866C86.5068 98.2226 86.8712 97.0919 86.3116 95.1032C86.2465 94.8823 86.0643 94.3494 85.8821 93.8685C84.5286 98.8465 85.3225 98.9375 85.9082 98.5866Z" fill="url(#paint1_linear)"/>
<path d="M5.97357 41.5793V92.5557L50.1705 118.044V67.0675L5.97357 41.5793ZM23.0485 86.1739V69.511L33.1086 84.2373L23.0485 86.1739Z" fill="url(#paint2_linear)"/>
<defs>
<linearGradient id="paint0_linear" x1="0.597024" y1="57.8845" x2="110.323" y2="58.3985" gradientUnits="userSpaceOnUse">
<stop stop-color="#F4C9BB"/>
<stop offset="1" stop-color="#FF9494"/>
</linearGradient>
<linearGradient id="paint1_linear" x1="0.597024" y1="57.8845" x2="110.323" y2="58.3985" gradientUnits="userSpaceOnUse">
<stop stop-color="#F4C9BB"/>
<stop offset="1" stop-color="#FF9494"/>
</linearGradient>
<linearGradient id="paint2_linear" x1="0.597024" y1="57.8845" x2="110.323" y2="58.3985" gradientUnits="userSpaceOnUse">
<stop stop-color="#F4C9BB"/>
<stop offset="1" stop-color="#FF9494"/>
</linearGradient>
</defs>
</svg>
