<svg width="19" height="16" viewBox="0 0 19 16" fill="none" xmlns="http://www.w3.org/2000/svg">
<rect x="0.5" y="0.5" width="18" height="15" stroke="black"/>
<rect width="19" height="4" fill="black"/>
<rect x="4" y="6" width="3" height="4" fill="black"/>
</svg>
