<svg width="10" height="12" viewBox="0 0 10 12" fill="none" xmlns="http://www.w3.org/2000/svg">
<path d="M8.96741 5.07102L7.72729 3.94883L5.87587 5.62153V0H4.12097V5.62153L2.27247 3.94883L1.03234 5.07102L4.99842 8.6599L8.96741 5.07102Z" fill="white"/>
<path d="M10 10.412H0V12H10V10.412Z" fill="white"/>
</svg>
