<svg width="17" height="19" viewBox="0 0 17 19" fill="none" xmlns="http://www.w3.org/2000/svg">
<path d="M14.873 11.3425V7.39623C14.873 4.39546 12.4444 1.9232 9.30476 1.55617V0.742853C9.30476 0.331788 8.94603 0 8.50159 0C8.05714 0 7.69841 0.331788 7.69841 0.742853V1.55617C4.55873 1.9232 2.13016 4.39546 2.13016 7.39623V11.3395L0 15.7115H17L14.873 11.3425Z" fill="black"/>
<path d="M8.50159 19C9.5619 19 10.4698 18.3276 10.8698 17.3675H6.13333C6.53016 18.3306 7.44127 19 8.50159 19Z" fill="black"/>
</svg>
