<svg width="19" height="24" viewBox="0 0 19 24" fill="none" xmlns="http://www.w3.org/2000/svg">
<path d="M14.5879 0H0V24H19V4.58964C17.2752 2.79541 16.3073 1.79423 14.5879 0ZM5.17985 6.51887C5.36369 6.40075 5.55293 6.29951 5.74758 6.21514L7.33182 10.1692L3.22254 9.85423C3.31986 8.48184 4.0498 7.23881 5.17985 6.51887ZM12.6577 16.3C10.4624 17.7849 7.4778 17.1324 6.05037 14.8488C5.55293 14.0502 5.28258 13.1221 5.27718 12.1772L10.0515 12.1434L8.54297 7.43004C10.5976 6.71573 12.8739 7.54816 14.0526 9.43239C15.4855 11.7103 14.8529 14.8095 12.6577 16.3Z" fill="white"/>
</svg>
